{
  "prepare_queue": {
    "installed": [],
    "uninstalled": []
  },
  "config_munge": {
    "files": {}
  },
  "installed_plugins": {
    "cordova-plugin-whitelist": {
      "PACKAGE_NAME": "com.hackathon.cathay"
    },
    "cordova-plugin-statusbar": {
      "PACKAGE_NAME": "com.hackathon.cathay"
    },
    "cordova-plugin-splashscreen": {
      "PACKAGE_NAME": "com.hackathon.cathay"
    },
    "cordova-plugin-dialogs": {
      "PACKAGE_NAME": "com.hackathon.cathay"
    },
    "cordova-plugin-device": {
      "PACKAGE_NAME": "com.hackathon.cathay"
    },
    "cordova-plugin-inappbrowser": {
      "PACKAGE_NAME": "com.hackathon.cathay"
    },
    "cordova-plugin-facebook4": {
      "APP_ID": "180322165858842",
      "APP_NAME": "Cathay Beyond",
      "PACKAGE_NAME": "com.hackathon.cathay"
    },
    "inflight-entertainment": {
      "PACKAGE_NAME": "com.hackathon.cathay"
    }
  },
  "dependent_plugins": {}
}